<?xml version="1.0" encoding="UTF-8"?>
<!DOCTYPE suite SYSTEM "http://testng.org/testng-1.0.dtd">
<suite thread-count="3" verbose="0" name="Failed suite [Suite]" parallel="tests">
  <parameter name="GridURL" value="http://10.27.208.11:5555/wd/hub"/>
  <parameter name="password" value="Revtech@123"/>
  <parameter name="broName" value="chrome"/>
  <parameter name="GridExecution" value="false"/>
  <parameter name="PlatForm" value="Platform.VISTA"/>
  <parameter name="extentVal" value="0"/>
  <parameter name="dynamicNum" value="0"/>
  <parameter name="email" value="prevailrevtech05@gmail.com"/>
  <listeners>
    <listener class-name="com.cbk.utilgeneric.Screenshot"/>
  </listeners>
  <test name="Firefox_Test(failed)" parallel="tests">
    <parameter name="GridURL" value="http://10.27.208.68:4444/wd/hub"/>
    <parameter name="password" value="Revtech@123"/>
    <parameter name="broName" value="firefox"/>
    <parameter name="PlatForm" value="Platform.VISTA"/>
    <parameter name="extentVal" value="0"/>
    <parameter name="dynamicNum" value="0"/>
    <parameter name="email" value="prevailrevtech04@gmail.com"/>
    <classes>
      <class name="com.cbk.profile.Login">
        <methods>
          <include name="extReport"/>
          <include name="tearDown"/>
          <include name="initialize"/>
          <include name="initialize"/>
          <include name="endTest"/>
          <include name="endTest"/>
          <include name="TC00_LoginToApplication"/>
          <include name="cleanUp"/>
        </methods>
      </class> <!-- com.cbk.profile.Login -->
    </classes>
  </test> <!-- Firefox_Test(failed) -->
  <test name="Chrome_Test(failed)" parallel="tests">
    <parameter name="GridURL" value="http://10.27.208.11:5555/wd/hub"/>
    <parameter name="password" value="Revtech@123"/>
    <parameter name="broName" value="chrome"/>
    <parameter name="PlatForm" value="Platform.VISTA"/>
    <parameter name="extentVal" value="0"/>
    <parameter name="email" value="prevailrevtech05@gmail.com"/>
    <classes>
      <class name="com.cbk.profile.Login">
        <methods>
          <include name="extReport"/>
          <include name="tearDown"/>
          <include name="initialize"/>
          <include name="initialize"/>
          <include name="endTest"/>
          <include name="endTest"/>
          <include name="TC00_LoginToApplication"/>
          <include name="cleanUp"/>
        </methods>
      </class> <!-- com.cbk.profile.Login -->
    </classes>
  </test> <!-- Chrome_Test(failed) -->
</suite> <!-- Failed suite [Suite] -->
