-------------------------------------------------------------------------------
Test set: TestSuite
-------------------------------------------------------------------------------
Tests run: 6, Failures: 2, Errors: 0, Skipped: 4, Time elapsed: 30.823 s <<< FAILURE! - in TestSuite
initialize(com.cbk.profile.Login)  Time elapsed: 19.197 s  <<< FAILURE!
org.openqa.selenium.WebDriverException: 
Reached error page: about:neterror?e=dnsNotFound&u=https%3A//dev.christopherandbanks.com/&c=UTF-8&f=regular&d=Firefox%20can%E2%80%99t%20find%20the%20server%20at%20dev.christopherandbanks.com.
Build info: version: '3.12.0', revision: '7c6e0b3', time: '2018-05-08T14:04:26.12Z'
System info: host: 'B2-LAP-VLANKA', ip: '10.27.208.68', os.name: 'Windows 7', os.arch: 'amd64', os.version: '6.1', java.version: '1.8.0_112'
Driver info: org.openqa.selenium.firefox.FirefoxDriver
Capabilities {acceptInsecureCerts: true, browserName: firefox, browserVersion: 54.0, javascriptEnabled: true, moz:accessibilityChecks: false, moz:processID: 21008, moz:profile: C:\Users\vbhaskar\AppData\L..., pageLoadStrategy: normal, platform: XP, platformName: XP, platformVersion: 6.1, rotatable: false, specificationLevel: 0, timeouts: {implicit: 0, pageLoad: 300000, script: 30000}}
Session ID: e95362ba-aa1d-4476-ad17-b4d6ce50c2d8

TC00_LoginToApplication(com.cbk.profile.Login)  Time elapsed: 9.149 s  <<< FAILURE!
java.lang.NullPointerException
	at com.cbk.profile.Login.TC00_LoginToApplication(Login.java:22)

